,Time,Traffics.crowdness,Traffics.location_number,Traffics.marker_id,Traffics.speed_limit_display
0,12:52:41.055,0.0,20.0,0.0,130.0
1,12:52:43.056,20.0,20.0,0.0,130.0
2,12:52:45.059,28.0,20.0,0.0,130.0
3,12:52:47.061,16.0,20.0,0.0,130.0
